{
    "href": "https://api.spotify.com/v1/me/tracks?offset=0&limit=20",
    "items": [
        {
            "added_at": "2016-10-24T15:03:07Z",
            "track": {
                "album": {
                    "album_type": "album",
                    "artists": [
                        {
                            "external_urls": {
                                "spotify": "https://open.spotify.com/artist/0LIll5i3kwo5A3IDpipgkS"
                            },
                            "href": "https://api.spotify.com/v1/artists/0LIll5i3kwo5A3IDpipgkS",
                            "id": "0LIll5i3kwo5A3IDpipgkS",
                            "name": "Squirrel Nut Zippers",
                            "type": "artist",
                            "uri": "spotify:artist:0LIll5i3kwo5A3IDpipgkS"
                        }
                    ],
                    "available_markets": [
                        "AD",
                        "AR",
                        "AT",
                        "AU",
                        "BE",
                        "BG",
                        "BO",
                        "BR",
                        "CH",
                        "CL",
                        "CO",
                        "CR",
                        "CY",
                        "CZ",
                        "DE",
                        "DK",
                        "DO",
                        "EC",
                        "EE",
                        "ES",
                        "FI",
                        "FR",
                        "GB",
                        "GR",
                        "GT",
                        "HK",
                        "HN",
                        "HU",
                        "ID",
                        "IE",
                        "IS",
                        "IT",
                        "JP",
                        "LI",
                        "LT",
                        "LU",
                        "LV",
                        "MC",
                        "MT",
                        "MY",
                        "NI",
                        "NL",
                        "NO",
                        "NZ",
                        "PA",
                        "PE",
                        "PH",
                        "PL",
                        "PT",
                        "PY",
                        "SE",
                        "SG",
                        "SK",
                        "SV",
                        "TR",
                        "TW",
                        "UY"
                    ],
                    "external_urls": {
                        "spotify": "https://open.spotify.com/album/63GBbuUNBel2ovJjUrfh5r"
                    },
                    "href": "https://api.spotify.com/v1/albums/63GBbuUNBel2ovJjUrfh5r",
                    "id": "63GBbuUNBel2ovJjUrfh5r",
                    "images": [
                        {
                            "height": 640,
                            "url": "https://i.scdn.co/image/e9c5fd63935b08ed27a7a5b0e65b2c6bf600fc4a",
                            "width": 640
                        },
                        {
                            "height": 300,
                            "url": "https://i.scdn.co/image/416b6589d9e2d91147ff5072d640d0041b04cb41",
                            "width": 300
                        },
                        {
                            "height": 64,
                            "url": "https://i.scdn.co/image/4bb6b451b8edde5881a5fcbe1a54bc8538f407ec",
                            "width": 64
                        }
                    ],
                    "name": "The Best of Squirrel Nut Zippers",
                    "type": "album",
                    "uri": "spotify:album:63GBbuUNBel2ovJjUrfh5r"
                },
                "artists": [
                    {
                        "external_urls": {
                            "spotify": "https://open.spotify.com/artist/0LIll5i3kwo5A3IDpipgkS"
                        },
                        "href": "https://api.spotify.com/v1/artists/0LIll5i3kwo5A3IDpipgkS",
                        "id": "0LIll5i3kwo5A3IDpipgkS",
                        "name": "Squirrel Nut Zippers",
                        "type": "artist",
                        "uri": "spotify:artist:0LIll5i3kwo5A3IDpipgkS"
                    }
                ],
                "available_markets": [
                    "AD",
                    "AR",
                    "AT",
                    "AU",
                    "BE",
                    "BG",
                    "BO",
                    "BR",
                    "CH",
                    "CL",
                    "CO",
                    "CR",
                    "CY",
                    "CZ",
                    "DE",
                    "DK",
                    "DO",
                    "EC",
                    "EE",
                    "ES",
                    "FI",
                    "FR",
                    "GB",
                    "GR",
                    "GT",
                    "HK",
                    "HN",
                    "HU",
                    "ID",
                    "IE",
                    "IS",
                    "IT",
                    "JP",
                    "LI",
                    "LT",
                    "LU",
                    "LV",
                    "MC",
                    "MT",
                    "MY",
                    "NI",
                    "NL",
                    "NO",
                    "NZ",
                    "PA",
                    "PE",
                    "PH",
                    "PL",
                    "PT",
                    "PY",
                    "SE",
                    "SG",
                    "SK",
                    "SV",
                    "TR",
                    "TW",
                    "UY"
                ],
                "disc_number": 1,
                "duration_ms": 137040,
                "explicit": false,
                "external_ids": {
                    "isrc": "USMA20215185"
                },
                "external_urls": {
                    "spotify": "https://open.spotify.com/track/2jpDioAB9tlYXMdXDK3BGl"
                },
                "href": "https://api.spotify.com/v1/tracks/2jpDioAB9tlYXMdXDK3BGl",
                "id": "2jpDioAB9tlYXMdXDK3BGl",
                "name": "Good Enough For Granddad",
                "popularity": 19,
                "preview_url": "https://p.scdn.co/mp3-preview/32cc6f7a3fca362dfcde753f0339f42539f15c9a",
                "track_number": 1,
                "type": "track",
                "uri": "spotify:track:2jpDioAB9tlYXMdXDK3BGl"
      ...
            }
        }
    ],
    "limit": 20,
    "next": "https://api.spotify.com/v1/me/tracks?offset=20&limit=20",
    "offset": 0,
    "previous": null,
    "total": 53
}

{
    "artists": {
        "items": [
            {
                "external_urls": {
                    "spotify": "https://open.spotify.com/artist/0I2XqVXqHScXjHhk6AYYRe"
                },
                "followers": {
                    "href": null,
                    "total": 7753
                },
                "genres": [
                    "swedish hip hop"
                ],
                "href": "https://api.spotify.com/v1/artists/0I2XqVXqHScXjHhk6AYYRe",
                "id": "0I2XqVXqHScXjHhk6AYYRe",
                "images": [
                    {
                        "height": 640,
                        "url": "https://i.scdn.co/image/2c8c0cea05bf3d3c070b7498d8d0b957c4cdec20",
                        "width": 640
                    },
                    {
                        "height": 300,
                        "url": "https://i.scdn.co/image/394302b42c4b894786943e028cdd46d7baaa29b7",
                        "width": 300
                    },
                    {
                        "height": 64,
                        "url": "https://i.scdn.co/image/ca9df7225ade6e5dfc62e7076709ca3409a7cbbf",
                        "width": 64
                    }
                ],
                "name": "Afasi & Filthy",
                "popularity": 54,
                "type": "artist",
                "uri": "spotify:artist:0I2XqVXqHScXjHhk6AYYRe"
            },
            {
     ...
            }
        ],
        "next": "https://api.spotify.com/v1/users/thelinmichael/following?type=artist&after=0aV6DOiouImYTqrR5YlIqx&limit=20",
        "total": 183,
        "cursors": {
            "after": "0aV6DOiouImYTqrR5YlIqx"
        },
        "limit": 20,
        "href": "https://api.spotify.com/v1/users/thelinmichael/following?type=artist&limit=20"
    }
}
Get the current user’s followed artists using cursor Get the next page of results using the after cursor in the previous response: curl -X GET "https://api.spotify.com/v1/me/following?type=artist&after=0aV6DOiouImYTqrR5YlIqx" -H "Authorization: Bearer {your access token}"
{
    "artists": {
        "items": [
            {
                "external_urls": {
                    "spotify": "https://open.spotify.com/artist/01SvE1zJxDTFdcL7UMd0rv"
                },
                "followers": {
                    "href": null,
                    "total": 404
                },
                "genres": [],
                "href": "https://api.spotify.com/v1/artists/01SvE1zJxDTFdcL7UMd0rv",
                "id": "01SvE1zJxDTFdcL7UMd0rv",
                "images": [],
                "name": "Pst/Q",
                "popularity": 32,
                "type": "artist",
                "uri": "spotify:artist:01SvE1zJxDTFdcL7UMd0rv"
            },
            {
      ...
            }
        ],
        "next": "https://api.spotify.com/v1/users/thelinmichael/following?type=artist&after=0aV6DOiouImYTqrR5YlIqx&limit=20",
        "total": 183,
        "cursors": {
            "after": "0aV6DOiouImYTqrR5YlIqx"
        },
        "limit": 20,
        "href": "https://api.spotify.com/v1/users/thelinmichael/following?type=artist&limit=20"
    }
}